{
	"info": {
		"_postman_id": "066da976-d784-4b32-8a56-0631a98d8ce4",
		"name": "MFU",
		"schema": "https://schema.getpostman.com/json/collection/v2.1.0/collection.json"
	},
	"item": [
		{
			"name": "User",
			"item": [
				{
					"name": "01 register",
					"request": {
						"method": "POST",
						"header": [
							{
								"key": "Content-Type",
								"name": "Content-Type",
								"value": "application/json",
								"type": "text"
							}
						],
						"body": {
							"mode": "raw",
							"raw": "{\n\t\"email\":\"test@gmail.com\",\n    \"password\":\"1234\"\n}"
						},
						"url": {
							"raw": "{{server}}/users/register",
							"host": [
								"{{server}}"
							],
							"path": [
								"users",
								"register"
							]
						}
					},
					"response": []
				},
				{
					"name": "02 Get user data",
					"request": {
						"method": "GET",
						"header": [],
						"body": {
							"mode": "raw",
							"raw": ""
						},
						"url": {
							"raw": "{{server}}/user/info/10",
							"host": [
								"{{server}}"
							],
							"path": [
								"user",
								"info",
								"10"
							]
						}
					},
					"response": []
				},
				{
					"name": "03 edit user",
					"request": {
						"method": "PUT",
						"header": [
							{
								"key": "Content-Type",
								"name": "Content-Type",
								"value": "application/json",
								"type": "text"
							}
						],
						"body": {
							"mode": "raw",
							"raw": "{\n\t\"name\":\"ddsdsds\",\n    \"phone\":\"sds\",\n    \"interested\":\"dsdsd\",\n    \"aptitude\":\"dsdsds\"\n}"
						},
						"url": {
							"raw": "{{server}}/user/edit/3",
							"host": [
								"{{server}}"
							],
							"path": [
								"user",
								"edit",
								"3"
							]
						}
					},
					"response": []
				},
				{
					"name": "Login",
					"request": {
						"method": "POST",
						"header": [
							{
								"key": "Content-Type",
								"name": "Content-Type",
								"value": "application/json",
								"type": "text"
							}
						],
						"body": {
							"mode": "raw",
							"raw": "{\n\t\"email\":\"test@gmail.com\",\n    \"password\":\"1234\"\n}"
						},
						"url": {
							"raw": "{{server}}/login",
							"host": [
								"{{server}}"
							],
							"path": [
								"login"
							]
						}
					},
					"response": []
				},
				{
					"name": "deleted blog",
					"request": {
						"method": "DELETE",
						"header": [],
						"body": {
							"mode": "raw",
							"raw": ""
						},
						"url": {
							"raw": "{{server}}/delete/blog/10/1",
							"host": [
								"{{server}}"
							],
							"path": [
								"delete",
								"blog",
								"10",
								"1"
							]
						}
					},
					"response": []
				},
				{
					"name": "unfavorite",
					"request": {
						"method": "DELETE",
						"header": [],
						"body": {
							"mode": "raw",
							"raw": ""
						},
						"url": {
							"raw": "{{server}}/unfavorite/10/12",
							"host": [
								"{{server}}"
							],
							"path": [
								"unfavorite",
								"10",
								"12"
							]
						}
					},
					"response": []
				},
				{
					"name": "add favorite",
					"request": {
						"method": "POST",
						"header": [],
						"body": {
							"mode": "raw",
							"raw": ""
						},
						"url": {
							"raw": "{{server}}/add/favorite/13/11",
							"host": [
								"{{server}}"
							],
							"path": [
								"add",
								"favorite",
								"13",
								"11"
							]
						}
					},
					"response": []
				},
				{
					"name": "get favorite by user",
					"request": {
						"method": "GET",
						"header": [],
						"body": {
							"mode": "raw",
							"raw": ""
						},
						"url": {
							"raw": "{{server}}/favorite/user/11",
							"host": [
								"{{server}}"
							],
							"path": [
								"favorite",
								"user",
								"11"
							]
						}
					},
					"response": []
				},
				{
					"name": "add friend",
					"request": {
						"method": "POST",
						"header": [],
						"body": {
							"mode": "raw",
							"raw": ""
						},
						"url": {
							"raw": "{{server}}/add/friend?userId=1&friendId=11",
							"host": [
								"{{server}}"
							],
							"path": [
								"add",
								"friend"
							],
							"query": [
								{
									"key": "userId",
									"value": "1"
								},
								{
									"key": "friendId",
									"value": "11"
								}
							]
						}
					},
					"response": []
				},
				{
					"name": "unfriend",
					"request": {
						"method": "DELETE",
						"header": [],
						"body": {
							"mode": "raw",
							"raw": ""
						},
						"url": {
							"raw": "{{server}}/unfriend?userId=1&friendId=10",
							"host": [
								"{{server}}"
							],
							"path": [
								"unfriend"
							],
							"query": [
								{
									"key": "userId",
									"value": "1"
								},
								{
									"key": "friendId",
									"value": "10"
								}
							]
						}
					},
					"response": []
				},
				{
					"name": "follower",
					"request": {
						"method": "POST",
						"header": [],
						"body": {
							"mode": "raw",
							"raw": ""
						},
						"url": {
							"raw": "{{server}}/add/follower?userId=1&followerId=10",
							"host": [
								"{{server}}"
							],
							"path": [
								"add",
								"follower"
							],
							"query": [
								{
									"key": "userId",
									"value": "1"
								},
								{
									"key": "followerId",
									"value": "10"
								}
							]
						}
					},
					"response": []
				}
			]
		},
		{
			"name": "Blog",
			"item": [
				{
					"name": "Add blog",
					"request": {
						"method": "POST",
						"header": [
							{
								"key": "Content-Type",
								"name": "Content-Type",
								"value": "application/json",
								"type": "text"
							}
						],
						"body": {
							"mode": "raw",
							"raw": "{\n\t\"title\":\"fdfdfdfd\",\n\t\"detail\":\"gdfdfdfdf\"\n}\n\n"
						},
						"url": {
							"raw": "{{server}}/addBlog/1?typeId=2",
							"host": [
								"{{server}}"
							],
							"path": [
								"addBlog",
								"1"
							],
							"query": [
								{
									"key": "typeId",
									"value": "2"
								}
							]
						}
					},
					"response": []
				},
				{
					"name": "edit blog",
					"request": {
						"method": "PUT",
						"header": [
							{
								"key": "Content-Type",
								"name": "Content-Type",
								"value": "application/json",
								"type": "text"
							}
						],
						"body": {
							"mode": "raw",
							"raw": "{\n\t\"title\":\"aaaaaaaaa\",\n\t\"detail\":\"aaaaaaaaaaa\"\n}"
						},
						"url": {
							"raw": "{{server}}/blog/edit/4",
							"host": [
								"{{server}}"
							],
							"path": [
								"blog",
								"edit",
								"4"
							]
						}
					},
					"response": []
				},
				{
					"name": "get blog by user",
					"request": {
						"method": "GET",
						"header": [],
						"body": {
							"mode": "raw",
							"raw": ""
						},
						"url": {
							"raw": "{{server}}/blog/user/1",
							"host": [
								"{{server}}"
							],
							"path": [
								"blog",
								"user",
								"1"
							]
						}
					},
					"response": []
				},
				{
					"name": "get blog by id",
					"request": {
						"method": "GET",
						"header": [],
						"body": {
							"mode": "raw",
							"raw": ""
						},
						"url": {
							"raw": "{{server}}/blog/9",
							"host": [
								"{{server}}"
							],
							"path": [
								"blog",
								"9"
							]
						}
					},
					"response": []
				},
				{
					"name": "All blog",
					"request": {
						"method": "GET",
						"header": [],
						"body": {
							"mode": "raw",
							"raw": ""
						},
						"url": {
							"raw": "{{server}}/all/blog",
							"host": [
								"{{server}}"
							],
							"path": [
								"all",
								"blog"
							]
						}
					},
					"response": []
				},
				{
					"name": "get all blog type",
					"request": {
						"method": "GET",
						"header": [],
						"body": {
							"mode": "raw",
							"raw": ""
						},
						"url": {
							"raw": "{{server}}/blogtype",
							"host": [
								"{{server}}"
							],
							"path": [
								"blogtype"
							]
						}
					},
					"response": []
				}
			]
		},
		{
			"name": "admin",
			"item": [
				{
					"name": "Get All User",
					"request": {
						"method": "GET",
						"header": [],
						"body": {
							"mode": "raw",
							"raw": ""
						},
						"url": {
							"raw": "{{server}}/getalluser",
							"host": [
								"{{server}}"
							],
							"path": [
								"getalluser"
							]
						}
					},
					"response": []
				},
				{
					"name": "add admin",
					"request": {
						"method": "PUT",
						"header": [],
						"body": {
							"mode": "raw",
							"raw": ""
						},
						"url": {
							"raw": "{{server}}/add/admin?adminId=1&userId=10",
							"host": [
								"{{server}}"
							],
							"path": [
								"",
								"add",
								"admin"
							],
							"query": [
								{
									"key": "adminId",
									"value": "1"
								},
								{
									"key": "userId",
									"value": "10"
								}
							]
						}
					},
					"response": []
				},
				{
					"name": "deleted admin",
					"request": {
						"method": "PUT",
						"header": [],
						"body": {
							"mode": "raw",
							"raw": ""
						},
						"url": {
							"raw": "{{server}}/delete/admin?adminId=1&userId=10",
							"host": [
								"{{server}}"
							],
							"path": [
								"delete",
								"admin"
							],
							"query": [
								{
									"key": "adminId",
									"value": "1"
								},
								{
									"key": "userId",
									"value": "10"
								}
							]
						}
					},
					"response": []
				},
				{
					"name": "edit blog type",
					"request": {
						"method": "PUT",
						"header": [
							{
								"key": "Content-Type",
								"name": "Content-Type",
								"value": "application/json",
								"type": "text"
							}
						],
						"body": {
							"mode": "raw",
							"raw": "{\n\t\"typeName\":\"llll\"\n}"
						},
						"url": {
							"raw": "{{server}}/edit/blogtype/1/12",
							"host": [
								"{{server}}"
							],
							"path": [
								"edit",
								"blogtype",
								"1",
								"12"
							]
						}
					},
					"response": []
				},
				{
					"name": "add blog type",
					"request": {
						"method": "POST",
						"header": [
							{
								"key": "Content-Type",
								"name": "Content-Type",
								"value": "application/json",
								"type": "text"
							}
						],
						"body": {
							"mode": "raw",
							"raw": "{\n\t\"typeName\":\"ggggggg\"\n}"
						},
						"url": {
							"raw": "{{server}}/add/blogtype?adminId=1",
							"host": [
								"{{server}}"
							],
							"path": [
								"add",
								"blogtype"
							],
							"query": [
								{
									"key": "adminId",
									"value": "1"
								}
							]
						}
					},
					"response": []
				},
				{
					"name": "get all blog isdeleted",
					"request": {
						"method": "GET",
						"header": [],
						"body": {
							"mode": "raw",
							"raw": ""
						},
						"url": {
							"raw": "{{server}}/all/blog/isdeleted",
							"host": [
								"{{server}}"
							],
							"path": [
								"all",
								"blog",
								"isdeleted"
							]
						}
					},
					"response": []
				},
				{
					"name": "get role admin",
					"request": {
						"method": "GET",
						"header": [],
						"body": {
							"mode": "raw",
							"raw": ""
						},
						"url": {
							"raw": "{{server}}/user/admin?role=admin",
							"host": [
								"{{server}}"
							],
							"path": [
								"user",
								"admin"
							],
							"query": [
								{
									"key": "role",
									"value": "admin"
								}
							]
						}
					},
					"response": []
				}
			]
		}
	]
}